%YAML 1.1
%TAG !u! tag:unity3d.com,2011:
--- !u!78 &1
TagManager:
  serializedVersion: 2
  tags:
  - PLAYER
  - ENEMY
  - BULLET
  - BALL
  layers:
  - Default
  - TransparentFX
  - Ignore Raycast
  - 
  - Water
  - UI
  - 
  - 
  - PLAYER
  - BULLET
  - ENEMY
  - WALL
  - BALL
  - 
  - 
  - 
  - 
  - 
  - 
  - 
  - 
  - 
  - 
  - 
  - 
  - 
  - 
  - 
  - 
  - 
  - 
  - 
  m_SortingLayers:
  - name: Default
    uniqueID: 0
    locked: 0
  - name: BACKGROUND
    uniqueID: 1419371693
    locked: 0
  - name: BULLET
    uniqueID: 3047945909
    locked: 0
  - name: ENEMY
    uniqueID: 3027612655
    locked: 0
  - name: PLAYER_SHIP
    uniqueID: 3632415113
    locked: 0
  - name: MATTE
    uniqueID: 2793499037
    locked: 0
